Simulation DEVS - FPGA/Simulation2.0.sim/sim_1/behav/xsim/full_de.vcd
$date
   Mon Aug 25 12:55:52 2025
$end

$version
  2025.1.0
  $dumpfile ("full_de.vcd") 
$end

$timescale
  1ps
$end

$scope module full_de_tb $end
$var reg 1 ! clk $end
$var reg 1 " rst_n $end
$var reg 1 # start_sim_in $end
$var reg 8 $ x_in [7:0] $end
$var wire 1 % step $end
$var wire 1 & done_s_w $end
$var wire 1 ' done_c_w $end
$var wire 1 ( at_w $end
$var wire 1 ) star_w $end
$var wire 8 * next_time_s_w [7:0] $end
$var wire 8 + next_time_c_w [7:0] $end
$var wire 8 , y_out_w [7:0] $end
$upscope $end
$scope module glbl $end
$upscope $end
$enddefinitions $end

#0
$dumpvars
0!
0"
0#
b0 $
0%
0&
0'
0(
0)
b0 *
b0 +
bx ,
0-
0.
0/
b0 0
01
02
03
04
b0 5
b0 6
b0 7
b0 8
09
0:
0;
b0 <
b0 =
b0 >
b0 ?
bx @
0A
b0 B
b0 C
b0 D
b0 E
b0 F
b0 G
b0 H
b0 I
b0 J
0K
1L
$end

#10000
1!
1-

#20000
0!
0-

#30000
1!
1-

#40000
0!
1"
1#
b1010 $
0-
1.
1/
b1010 0
b1 >

#50000
1!
1(
1-
11
19
b1 =
b10 >
b1 D

#60000
0!
0-

#70000
1!
0(
1-
01
09
b10 =
b1 C
b1 F
b1 I
0L

#80000
0!
0-

#90000
1!
b1010 ,
1-
b1010 @
b0 D
b1 E
b1 H
b1 J

#100000
0!
0-

#110000
1!
1&
b1 *
b1 +
bx ,
1-
13
b1 5
b1 6
b1 <
b11 >
bx @
1A
b1 B
b0 C
b10 J

#120000
0!
0-

#130000
1!
0&
1)
1-
12
03
1:
b11 =
b100 >
0A
b10 D
b0 F

#140000
0!
0-

#150000
1!
0)
1-
02
0:
b100 =
b10 C
b0 D
b0 E
b1 G
b10 H

#160000
0!
0-

#170000
1!
1&
b10 *
b10 +
1-
13
b10 5
b10 6
b10 <
b101 >
1A
b10 B
b0 C

#180000
0!
0-

#190000
1!
0#
1%
0&
1'
1-
0/
03
14
1;
b101 =
b0 >
0A

#200000
0!
0-

#210000
1!
0%
0'
1-
04
b10 7
b10 8
0;
b0 =
b10 ?

#220000
0!
0-

#230000
1!
1-

#240000
0!
0-

#250000
1!
1-

#260000
0!
0-

#270000
1!
1-

#280000
0!
0-

#290000
1!
1#
b10100 $
1(
1-
1/
b10100 0
11
19
b1 =
b10 >
b1 D

#300000
0!
0-

#310000
1!
0(
1-
01
09
b10 =
b1 C
b1 F
b10 I

#320000
0!
0-

#330000
1!
1-
b0 D
b1 E
b10 G
b11 H
b11 J

#340000
0!
0-

#350000
1!
1&
b11 *
b11 +
1-
13
b11 5
b11 6
b11 <
b11 >
1A
b11 B
b0 C
b0 J
1L

#360000
0!
0-

#370000
1!
0&
1)
1-
12
03
1:
b11 =
b100 >
0A
b10 D
b0 F

#380000
0!
0-

#390000
1!
0)
1-
02
0:
b100 =
b10 C
b0 D
b0 E
b11 G
b100 H

#400000
0!
0-

#410000
1!
1&
b100 *
b100 +
1-
13
b100 5
b100 6
b100 <
b101 >
1A
b100 B
b0 C

#420000
0!
0-

#430000
1!
0#
1%
0&
1'
1-
0/
03
14
1;
b101 =
b0 >
0A

#440000
0!
0-

#450000
1!
0%
0'
1-
04
b100 7
b100 8
0;
b0 =
b100 ?

#460000
0!
0-

#470000
1!
1-

#480000
0!
0-

#490000
1!
1-

#500000
0!
0-

#510000
1!
1-

#520000
0!
0-

#530000
1!
1#
b11110 $
1(
1-
1/
b11110 0
11
19
b1 =
b10 >
b1 D

#540000
0!
0-

#550000
1!
0(
1-
01
09
b10 =
b1 C
b1 F
b11 I
0L

#560000
0!
0-

#570000
1!
b1010 ,
1-
b1010 @
b0 D
b1 E
b100 G
b101 H
b1 J

#580000
0!
0-

#590000
1!
1&
b101 *
b101 +
b10100 ,
1-
13
b101 5
b101 6
b101 <
b11 >
b10100 @
1A
b101 B
b0 C
b10 J

#600000
0!
0-

#610000
1!
0&
1)
1-
12
03
1:
b11 =
b100 >
0A
b10 D
b0 F

#620000
0!
0-

#630000
1!
0)
1-
02
0:
b100 =
b10 C
b0 D
b0 E
b101 G
b110 H

#640000
0!
0-

#650000
1!
1&
b110 *
b110 +
1-
13
b110 5
b110 6
b110 <
b101 >
1A
b110 B
b0 C

#660000
0!
0-

#670000
1!
0#
1%
0&
1'
1-
0/
03
14
1;
b101 =
b0 >
0A

#680000
0!
0-

#690000
1!
0%
0'
1-
04
b110 7
b110 8
0;
b0 =
b110 ?

#700000
0!
0-

#710000
1!
1-

#720000
0!
0-

#730000
1!
1-

#740000
0!
0-

#750000
1!
1-

#760000
0!
0-
